examples/lab1_led_test.vcd
$date
	Fri May 29 20:57:41 2026
$end
$version
	Icarus Verilog
$end
$timescale
	1ps
$end
$scope module tb_led_test $end
$var wire 4 ! led [3:0] $end
$var reg 1 " rst_n $end
$var reg 1 # sys_clk $end
$scope module dut $end
$var wire 1 " rst_n $end
$var wire 1 # sys_clk $end
$var reg 4 $ led [3:0] $end
$var reg 32 % timer [31:0] $end
$upscope $end
$scope task step_to_timer $end
$var reg 32 & value [31:0] $end
$upscope $end
$upscope $end
$enddefinitions $end
$comment Show the parameter values. $end
$dumpall
$end
#0
$dumpvars
bx &
bx %
bx $
0#
0"
bx !
$end
#10000
b0 %
b0 !
b0 $
1#
#20000
0#
#30000
1#
#40000
0#
#50000
1#
#60000
0#
#70000
b1 %
1"
1#
#80000
0#
#90000
b10 %
1#
#100000
0#
#110000
b11 %
1#
#120000
0#
#130000
b100 %
1#
#140000
0#
#150000
b101 %
b10111110101111000001111111 &
1#
#160000
b10111110101111000001111111 %
0#
#170000
b10111110101111000001111111 %
b1 !
b1 $
1#
#171000
b10111110101111000001111111 %
#180000
0#
#190000
b10111110101111000010000000 %
1#
#191000
b101111101011110000011111111 &
#200000
b101111101011110000011111111 %
0#
#210000
b101111101011110000011111111 %
b10 !
b10 $
1#
#211000
b101111101011110000011111111 %
#220000
0#
#230000
b101111101011110000100000000 %
1#
#231000
b1000111100001101000101111111 &
#240000
b1000111100001101000101111111 %
0#
#250000
b1000111100001101000101111111 %
b100 !
b100 $
1#
#251000
b1000111100001101000101111111 %
#260000
0#
#270000
b1000111100001101000110000000 %
1#
#271000
b1011111010111100000111111111 &
#280000
b1011111010111100000111111111 %
0#
#290000
b1011111010111100000111111111 %
b1000 !
b1000 $
1#
#291000
b1011111010111100000111111111 %
#300000
0#
#310000
b0 %
1#
